L_SEGMENT,M_SEGMENT,SEGMENT,PROD_CODE,PROD_NAME,WEST_STOCK,FUKUOKA_STOCK
01:シャックル,0106:TAIYOシャックル,010606:TAIYOシャックルSB,1001350,TAIYOシャックル 黒 SB-6,620.0000,0.0000
01:シャックル,0106:TAIYOシャックル,010606:TAIYOシャックルSB,1001368,TAIYOシャックル 黒 SB-8,19.0000,0.0000
01:シャックル,0106:TAIYOシャックル,010606:TAIYOシャックルSB,1001376,TAIYOシャックル 黒 SB-10,537.0000,0.0000
01:シャックル,0106:TAIYOシャックル,010606:TAIYOシャックルSB,1003557,TAIYOシャックル ドブ SB-6,340.0000,0.0000
01:シャックル,0106:TAIYOシャックル,010606:TAIYOシャックルSB,1003565,TAIYOシャックル ドブ SB-8,21.0000,0.0000
01:シャックル,0106:TAIYOシャックル,010606:TAIYOシャックルSB,1003573,TAIYOシャックル ドブ SB-10,67.0000,0.0000
01:シャックル,0106:TAIYOシャックル,010606:TAIYOシャックルSB,1005606,TAIYOシャックル ドブ SB-24,31.0000,0.0000
01:シャックル,0106:TAIYOシャックル,010606:TAIYOシャックルSB,1001384,TAIYOシャックル 黒 SB-12,49.0000,0.0000
01:シャックル,0106:TAIYOシャックル,010606:TAIYOシャックルSB,1005614,TAIYOシャックル ドブ SB-26,16.0000,0.0000
01:シャックル,0106:TAIYOシャックル,010606:TAIYOシャックルSB,1005622,TAIYOシャックル ドブ SB-28,9.0000,0.0000
01:シャックル,0106:TAIYOシャックル,010606:TAIYOシャックルSB,1001392,TAIYOシャックル 黒 SB-14,48.0000,0.0000
01:シャックル,0106:TAIYOシャックル,010606:TAIYOシャックルSB,1005291,TAIYOシャックル 黒 SB-16,43.0000,0.0000
01:シャックル,0106:TAIYOシャックル,010606:TAIYOシャックルSB,1005304,TAIYOシャックル 黒 SB-18,20.0000,0.0000
01:シャックル,0106:TAIYOシャックル,010606:TAIYOシャックルSB,1005312,TAIYOシャックル 黒 SB-20,88.0000,0.0000
01:シャックル,0106:TAIYOシャックル,010607:TAIYOシャックルSC,1005924,TAIYOシャックル 黒 SC-24,259.0000,0.0000
01:シャックル,0106:TAIYOシャックル,010607:TAIYOシャックルSC,1006092,TAIYOシャックル ドブ SC-22,35.0000,0.0000
01:シャックル,0106:TAIYOシャックル,010607:TAIYOシャックルSC,1006106,TAIYOシャックル ドブ SC-24,132.0000,0.0000
01:シャックル,0106:TAIYOシャックル,010607:TAIYOシャックルSC,1006114,TAIYOシャックル ドブ SC-26,548.0000,0.0000
01:シャックル,0106:TAIYOシャックル,010617:TAIYO型打シャックルSB,3355763,TAIYO型打シャックルドブ SB－22,0.0000,0.0000
01:シャックル,0107:捻込シャックル,010701:捻込シャックル,3010758,捻込シャックル 電気 16mm,5909.0000,0.0000
01:シャックル,0107:捻込シャックル,010701:捻込シャックル,3010766,捻込シャックル 電気 19mm,5088.0000,0.0000
01:シャックル,0107:捻込シャックル,010701:捻込シャックル,3010774,捻込シャックル 電気 22mm,4955.0000,0.0000
01:シャックル,0107:捻込シャックル,010701:捻込シャックル,3010715,捻込シャックル 黒 16mm,3179.0000,0.0000
01:シャックル,0107:捻込シャックル,010701:捻込シャックル,3010723,捻込シャックル 黒 19mm,1864.0000,0.0000
01:シャックル,0107:捻込シャックル,010701:捻込シャックル,3010731,捻込シャックル 黒 22mm,1827.0000,0.0000
01:シャックル,0107:捻込シャックル,010701:捻込シャックル,3010740,捻込シャックル 黒 25mm,297.0000,0.0000
01:シャックル,0107:捻込シャックル,010701:捻込シャックル,3008753,捻込シャックル ドブ 6mm,10052.0000,0.0000
01:シャックル,0107:捻込シャックル,010701:捻込シャックル,3008761,捻込シャックル ドブ 8mm,5614.0000,0.0000
01:シャックル,0107:捻込シャックル,010701:捻込シャックル,3010901,捻込シャックル ドブ 16mm,1441.0000,0.0000
01:シャックル,0107:捻込シャックル,010701:捻込シャックル,3010944,捻込シャックル ドブ 19mm,1868.0000,0.0000
01:シャックル,0107:捻込シャックル,010701:捻込シャックル,3013170,捻込シャックル ドブ 22mm,2641.0000,0.0000
01:シャックル,0107:捻込シャックル,010702:SUS　捻込シャックル,3007315,SUS 捻込シャックル ツバ付 4,4907.0000,0.0000
01:シャックル,0107:捻込シャックル,010702:SUS　捻込シャックル,3007447,SUS 捻込シャックル ツバ付 25,61.0000,0.0000
01:シャックル,0107:捻込シャックル,010702:SUS　捻込シャックル,3007323,SUS 捻込シャックル ツバ付 5,1536.0000,0.0000
01:シャックル,0107:捻込シャックル,010702:SUS　捻込シャックル,3007404,SUS 捻込シャックル ツバ付 22,698.0000,0.0000
01:シャックル,0108:ブロック連結シャックル,010801:溶接タイプ,3009318,ブロック連結シャックル溶接タイプ19mm,1283.0000,0.0000
01:シャックル,0108:ブロック連結シャックル,010802:鍛造タイプ,3300616,ブロック連結シャックル鍛造タイプ25mm,9258.0000,
01:シャックル,0109:各種シャックル,010901:USAシャックル,1009695,USAシャックル 黒 SE-28,93.0000,
01:シャックル,0109:各種シャックル,010901:USAシャックル,1009709,USAシャックル 黒 SE-32,190.0000,
01:シャックル,0109:各種シャックル,010901:USAシャックル,1009717,USAシャックル 黒 SE-38,53.0000,0.0000
02:フック,0203:重量フック,020301:重量フック　バネ付,3021407,重量フック バネ付 T-0.35t,2226.0000,0.0000
02:フック,0203:重量フック,020301:重量フック　バネ付,3023931,重量フック バネ付 T-1t,2327.0000,0.0000
02:フック,0203:重量フック,020301:重量フック　バネ付,3023957,重量フック バネ付 T-3t,1726.0000,0.0000
02:フック,0203:重量フック,020303:スタンダード重量フック　バネ付,1024074,重量フック スタンダード バネ付 2ｔ,439.0000,0.0000
02:フック,0203:重量フック,020303:スタンダード重量フック　バネ付,1024082,重量フック スタンダード バネ付 3ｔ,106.0000,0.0000
02:フック,0203:重量フック,020304:スタンダード重量フック　バネ無,1024023,重量フック スタンダード バネ無 2ｔ,89.0000,0.0000
02:フック,0203:重量フック,020304:スタンダード重量フック　バネ無,1024031,重量フック スタンダード バネ無 3ｔ,91.0000,
02:フック,0203:重量フック,020305:SUS　重量フック　バネ付,1014834,SUS 重量フック バネ付 0.35ｔ,85.0000,0.0000
02:フック,0203:重量フック,020305:SUS　重量フック　バネ付,1014176,SUS 重量フック バネ付 0.5ｔ,268.0000,0.0000
02:フック,0203:重量フック,020305:SUS　重量フック　バネ付,1014184,SUS 重量フック バネ付 1.0ｔ,206.0000,0.0000
02:フック,0203:重量フック,020305:SUS　重量フック　バネ付,1014222,SUS 重量フック バネ付 2.0ｔ,86.0000,0.0000
02:フック,0205:各種フック,020501:ヤーク,1011690,ヤーク 0.5ｔ,25.0000,0.0000
02:フック,0205:各種フック,020501:ヤーク,1011703,ヤーク 1ｔ,1.0000,0.0000
02:フック,0205:各種フック,020501:ヤーク,1011711,ヤーク 2ｔ,2.0000,0.0000
02:フック,0205:各種フック,020501:ヤーク,1011738,ヤーク 5ｔ,5.0000,
02:フック,0205:各種フック,020503:大洋ファンドリーフック,3033359,大洋ファンドリーフック 1ｔ,80.0000,0.0000
02:フック,0205:各種フック,020503:大洋ファンドリーフック,3033367,大洋ファンドリーフック 2ｔ,526.0000,0.0000
02:フック,0205:各種フック,020532:各種フック,1013137,SUS アイフック 100K,92.0000,0.0000
02:フック,0205:各種フック,020532:各種フック,1013153,SUS アイフック 300K,6.0000,
03:リング,0301:高品質リング,030101:強力リング,3024538,強力リング 16mm,648.0000,0.0000
03:リング,0301:高品質リング,030101:強力リング,1024597,強力リング 50mm,11.0000,0.0000
03:リング,0301:高品質リング,030101:強力リング,3024546,強力リング 19×75,1491.0000,0.0000
03:リング,0301:高品質リング,030101:強力リング,3024554,強力リング 22×100,1532.0000,0.0000
03:リング,0301:高品質リング,030101:強力リング,3024562,強力リング 25mm,380.0000,0.0000
03:リング,0301:高品質リング,030101:強力リング,3024571,強力リング 32mm,415.0000,0.0000
03:リング,0301:高品質リング,030101:強力リング,3024589,強力リング 38mm,278.0000,0.0000
03:リング,0301:高品質リング,030102:ハイパーリング,3011548,ハイパーリング 0.8t 12×65,1608.0000,0.0000
03:リング,0301:高品質リング,030102:ハイパーリング,3011549,ハイパーリング 1.25t 15×100,1424.0000,0.0000
03:リング,0301:高品質リング,030102:ハイパーリング,3011551,ハイパーリング 2t 20×140,1302.0000,0.0000
03:リング,0301:高品質リング,030102:ハイパーリング,3011552,ハイパーリング 3.2t 24×160,528.0000,0.0000
03:リング,0301:高品質リング,030102:ハイパーリング,3011553,ハイパーリング 5t 30×200,185.0000,0.0000
03:リング,0301:高品質リング,030103:スーパーアロイリング,1273911,スーパーアロイリング TRA-20ｔ,26.0000,0.0000
03:リング,0302:高品質リンク,030201:強力メインリンク,1061573,強力メインリンク 50mm,30.0000,
03:リング,0302:高品質リンク,030203:大内径リンク,3037575,大内径リンク 16t,166.0000,0.0000
03:リング,0302:高品質リンク,030203:大内径リンク,3037532,大内径リンク 3ｔ,183.0000,0.0000
03:リング,0302:高品質リンク,030203:大内径リンク,3037559,大内径リンク 8t,116.0000,0.0000
04:インカ製品,0401:インカリフティングスリング,040101:インカリフティングスリング,1009704,インカスリング JIS ⅢE-25×5m,76.0000,0.0000
04:インカ製品,0401:インカリフティングスリング,040101:インカリフティングスリング,1009705,インカスリング JIS ⅢE-25×6m,92.0000,0.0000
04:インカ製品,0401:インカリフティングスリング,040101:インカリフティングスリング,1009712,インカスリング JIS ⅢE-35×5m,53.0000,0.0000
04:インカ製品,0401:インカリフティングスリング,040101:インカリフティングスリング,1009722,インカスリング JIS ⅢE-75×1m,36.0000,0.0000
04:インカ製品,0401:インカリフティングスリング,040101:インカリフティングスリング,1009723,インカスリング JIS ⅢE-75×2m,3.0000,0.0000
04:インカ製品,0401:インカリフティングスリング,040101:インカリフティングスリング,1009725,インカスリング JIS ⅢE-75×3m,74.0000,0.0000
04:インカ製品,0401:インカリフティングスリング,040101:インカリフティングスリング,1009727,インカスリング JIS ⅢE-75×5m,29.0000,0.0000
04:インカ製品,0401:インカリフティングスリング,040101:インカリフティングスリング,1219321,インカスリング ⅢE-100×1m,2.0000,0.0000
04:インカ製品,0401:インカリフティングスリング,040101:インカリフティングスリング,1219347,インカスリング ⅢE-100×2m,15.0000,0.0000
04:インカ製品,0401:インカリフティングスリング,040101:インカリフティングスリング,1219363,インカスリング ⅢE-100×3m,3.0000,0.0000
04:インカ製品,0401:インカリフティングスリング,040101:インカリフティングスリング,1219401,インカスリング ⅢE-100×5m,3.0000,0.0000
04:インカ製品,0401:インカリフティングスリング,040101:インカリフティングスリング,1219428,インカスリング ⅢE-100×6m,1.0000,0.0000
04:インカ製品,0401:インカリフティングスリング,040101:インカリフティングスリング,1219525,インカスリング ⅢE-150×2m,3.0000,0.0000
04:インカ製品,0401:インカリフティングスリング,040101:インカリフティングスリング,1219541,インカスリング ⅢE-150×3m,4.0000,0.0000
04:インカ製品,0401:インカリフティングスリング,040101:インカリフティングスリング,1219568,インカスリング ⅢE-150×4m,1.0000,0.0000
04:インカ製品,0401:インカリフティングスリング,040101:インカリフティングスリング,1219584,インカスリング ⅢE-150×5m,2.0000,0.0000
04:インカ製品,0401:インカリフティングスリング,040101:インカリフティングスリング,1219606,インカスリング ⅢE-150×6m,4.0000,0.0000
04:インカ製品,0401:インカリフティングスリング,040101:インカリフティングスリング,1219649,インカスリング ⅢE-150×8m,1.0000,0.0000
06:チェーン,0601:雑用チェーン,060104:SUS　リンクチェーン,3006769,SUSリンクチェーン 3mm定尺30ｍ,25.0000,0.0000
06:チェーン,0601:雑用チェーン,060104:SUS　リンクチェーン,3007005,SUSリンクチェーン 5mm定尺30ｍ,0.0000,0.0000
06:チェーン,0601:雑用チェーン,060104:SUS　リンクチェーン,3007013,SUSリンクチェーン 6mm定尺30ｍ,62.0000,0.0000
07:スイベル・サルカン,0701:ダブルサルカン,070101:ダブルサルカン　AB,1028185,ダブルサルカン AB-101,4.0000,0.0000
07:スイベル・サルカン,0701:ダブルサルカン,070101:ダブルサルカン　AB,1028193,ダブルサルカン AB-102,8.0000,0.0000
07:スイベル・サルカン,0701:ダブルサルカン,070101:ダブルサルカン　AB,1028207,ダブルサルカン AB-103,3.0000,
07:スイベル・サルカン,0701:ダブルサルカン,070101:ダブルサルカン　AB,1028215,ダブルサルカン AB-105,9.0000,0.0000
07:スイベル・サルカン,0701:ダブルサルカン,070101:ダブルサルカン　AB,1028223,ダブルサルカン AB-110,9.0000,0.0000
07:スイベル・サルカン,0701:ダブルサルカン,070101:ダブルサルカン　AB,1028240,ダブルサルカン AB-125,3.0000,0.0000
07:スイベル・サルカン,0701:ダブルサルカン,070101:ダブルサルカン　AB,1028258,ダブルサルカン AB-150,3.0000,0.0000
07:スイベル・サルカン,0701:ダブルサルカン,070103:ダブルサルカン　BS,1028070,ダブルサルカン BS-102,36.0000,0.0000
07:スイベル・サルカン,0701:ダブルサルカン,070103:ダブルサルカン　BS,1028088,ダブルサルカン BS-103,69.0000,0.0000
07:スイベル・サルカン,0701:ダブルサルカン,070103:ダブルサルカン　BS,1028096,ダブルサルカン BS-105,30.0000,0.0000
07:スイベル・サルカン,0701:ダブルサルカン,070103:ダブルサルカン　BS,1028100,ダブルサルカン BS-110,23.0000,0.0000
07:スイベル・サルカン,0701:ダブルサルカン,070104:ダブルサルカン　ED,1012852,ダブルサルカン ED-115,8.0000,
07:スイベル・サルカン,0701:ダブルサルカン,070104:ダブルサルカン　ED,1030937,ダブルサルカン ED-120,2.0000,0.0000
07:スイベル・サルカン,0701:ダブルサルカン,070106:ダブルサルカン　SS,1028029,ダブルサルカン SS-101,10.0000,0.0000
07:スイベル・サルカン,0701:ダブルサルカン,070106:ダブルサルカン　SS,1028037,ダブルサルカン SS-102,11.0000,0.0000
07:スイベル・サルカン,0701:ダブルサルカン,070106:ダブルサルカン　SS,1028045,ダブルサルカン SS-103,62.0000,0.0000
07:スイベル・サルカン,0701:ダブルサルカン,070106:ダブルサルカン　SS,1028053,ダブルサルカン SS-105,11.0000,0.0000
08:ワイヤロープ・合繊ロープ,0801:JISワイヤロープ,080102:松和JISワイヤ,3231011,松和ワイヤ％ 6×24 8×1000m,0.0000,0.0000
08:ワイヤロープ・合繊ロープ,0801:JISワイヤロープ,080102:松和JISワイヤ,3230871,松和ワイヤ％ 6×24 18×500m,2.0000,0.0000
08:ワイヤロープ・合繊ロープ,0801:JISワイヤロープ,080102:松和JISワイヤ,3230880,松和ワイヤ％ 6×24 20×500m,2.0000,0.0000
08:ワイヤロープ・合繊ロープ,0801:JISワイヤロープ,080102:松和JISワイヤ,3230685,松和ワイヤ％ 6×24 22×200m,2.0000,0.0000
08:ワイヤロープ・合繊ロープ,0807:合繊ロープ,080708:合繊ロープ,1012889,TAIYO3.3.3介錯ロープ5m 3色,63.0000,0.0000
08:ワイヤロープ・合繊ロープ,0811:各種ワイヤロープ,081103:ラッシングワイヤ,3054046,ラッシングワイヤ6×22 18×180m,23.0000,0.0000
08:ワイヤロープ・合繊ロープ,0814:角当,081402:ワイヤプロテクター・アルミ角当,1049051,ワイヤプロテクター TC型,107.0000,0.0000
09:シンブル,0901:旧JIS形シンブル,090101:A形シンブル,3022128,シンブル A-46,246.0000,0.0000
09:シンブル,0901:旧JIS形シンブル,090101:A形シンブル,3022136,シンブル A-48,70.0000,0.0000
09:シンブル,0901:旧JIS形シンブル,090101:A形シンブル,3022144,シンブル A-50,42.0000,0.0000
09:シンブル,0902:各種シンブル,090202:ホーサー用シンブル,1023311,ホーサー用シンブル 100mm,2.0000,
10:ワイヤクリップ,1002:鋳造ワイヤクリップ,100201:TMワイヤクリップ,3280984,TMワイヤクリップ 黒 TM-25,1024.0000,0.0000
10:ワイヤクリップ,1002:鋳造ワイヤクリップ,100201:TMワイヤクリップ,3281115,TMワイヤクリップ 電気 TM-16,11497.0000,0.0000
10:ワイヤクリップ,1004:各種クリップ,100409:落石クロスクリップ,3017108,クロスクリップ ドブ 四ツ穴 12×16,2480.0000,0.0000
15:荷役・物流機器,1509:天秤,150901:パイプ吊天秤,1013743,吊り天秤(セット) 1ｔ×1400mm,5.0000,
15:荷役・物流機器,1509:天秤,150901:パイプ吊天秤,1013744,吊り天秤(セット) 2ｔ×1400mm,4.0000,
15:荷役・物流機器,1509:天秤,150901:パイプ吊天秤,1013745,吊り天秤(セット) 3ｔ×1400mm,7.0000,
19:船舶用品,1901:船舶艤装品,190101:アンカー・アンカーチェーン,3003387,ダンホースアンカー 2.5kg ドブ,4.0000,
19:船舶用品,1901:船舶艤装品,190101:アンカー・アンカーチェーン,3003417,ダンホースアンカー 7kg ドブ,9.0000,0.0000
19:船舶用品,1901:船舶艤装品,190101:アンカー・アンカーチェーン,3003433,ダンホースアンカー 15kg ドブ,8.0000,0.0000
99:設定なし,9999:設定なし,999999:設定なし,85Z02645,SUS長鎖環チェーン 9mm×20m,1.0000,
99:設定なし,9999:設定なし,999999:設定なし,85Z02644,SUS長鎖環チェーン 9mm×30m,3.0000,
99:設定なし,9999:設定なし,999999:設定なし,88Z02237,TAIYOカラビナO環付10クロムメッキ,86.0000,
